Labtest2020-21/counter.vcd
$date
	Thu Nov 25 13:09:26 2021
$end
$version
	Icarus Verilog
$end
$timescale
	1s
$end
$scope module tb_counter $end
$var wire 4 ! Q [0:3] $end
$var reg 1 " clock $end
$var reg 1 # reset $end
$scope module mycounter $end
$var wire 1 " clock $end
$var wire 1 # reset $end
$var wire 4 $ Qbar [0:3] $end
$var wire 4 % Q [3:0] $end
$scope module dff1 $end
$var wire 1 & D $end
$var wire 1 ' R $end
$var wire 1 ( S $end
$var wire 1 " clock $end
$var wire 1 # reset $end
$var wire 1 ) Qbar $end
$var wire 1 * Q $end
$scope module myff $end
$var wire 1 ' R $end
$var wire 1 ( S $end
$var wire 1 " clock $end
$var wire 1 # reset $end
$var reg 1 * Q $end
$var reg 1 ) Qbar $end
$upscope $end
$upscope $end
$scope module dff2 $end
$var wire 1 + D $end
$var wire 1 , R $end
$var wire 1 - S $end
$var wire 1 . clock $end
$var wire 1 # reset $end
$var wire 1 / Qbar $end
$var wire 1 0 Q $end
$scope module myff $end
$var wire 1 , R $end
$var wire 1 - S $end
$var wire 1 . clock $end
$var wire 1 # reset $end
$var reg 1 0 Q $end
$var reg 1 / Qbar $end
$upscope $end
$upscope $end
$scope module dff3 $end
$var wire 1 1 D $end
$var wire 1 2 R $end
$var wire 1 3 S $end
$var wire 1 4 clock $end
$var wire 1 # reset $end
$var wire 1 5 Qbar $end
$var wire 1 6 Q $end
$scope module myff $end
$var wire 1 2 R $end
$var wire 1 3 S $end
$var wire 1 4 clock $end
$var wire 1 # reset $end
$var reg 1 6 Q $end
$var reg 1 5 Qbar $end
$upscope $end
$upscope $end
$scope module dff4 $end
$var wire 1 7 D $end
$var wire 1 8 R $end
$var wire 1 9 S $end
$var wire 1 : clock $end
$var wire 1 # reset $end
$var wire 1 ; Qbar $end
$var wire 1 < Q $end
$scope module myff $end
$var wire 1 8 R $end
$var wire 1 9 S $end
$var wire 1 : clock $end
$var wire 1 # reset $end
$var reg 1 < Q $end
$var reg 1 ; Qbar $end
$upscope $end
$upscope $end
$upscope $end
$upscope $end
$enddefinitions $end
#0
$dumpvars
0<
1;
1:
19
08
17
06
15
14
13
02
11
00
1/
1.
1-
0,
1+
0*
1)
1(
0'
1&
b0 %
b1111 $
1#
1"
b0 !
$end
#1
0#
0"
#2
0(
1'
0.
0&
b111 $
0)
b1 !
b1 %
1*
1"
#3
0"
#4
0-
1,
04
0+
0/
10
1(
0'
1.
1&
b1011 $
1)
b10 !
b10 %
0*
1"
#5
0"
#6
0(
1'
0.
0&
b11 $
0)
b11 !
b11 %
1*
1"
#7
0"
#8
03
12
0:
01
05
16
1-
0,
14
1+
1/
00
1(
0'
1.
1&
b1101 $
1)
b100 !
b100 %
0*
1"
#9
0"
#10
0(
1'
0.
0&
b101 $
0)
b101 !
b101 %
1*
1"
#11
0"
#12
0-
1,
04
0+
0/
10
1(
0'
1.
1&
b1001 $
1)
b110 !
b110 %
0*
1"
#13
0"
#14
0(
1'
0.
0&
b1 $
0)
b111 !
b111 %
1*
1"
#15
0"
#16
09
18
07
0;
1<
13
02
1:
11
15
06
1-
0,
14
1+
1/
00
1(
0'
1.
1&
b1110 $
1)
b1000 !
b1000 %
0*
1"
#17
0"
#18
0(
1'
0.
0&
b110 $
0)
b1001 !
b1001 %
1*
1"
#19
0"
#20
0-
1,
04
0+
0/
10
1(
0'
1.
1&
b1010 $
1)
b1010 !
b1010 %
0*
1"
#21
0"
#22
0(
1'
0.
0&
b10 $
0)
b1011 !
b1011 %
1*
1"
#23
0"
#24
03
12
0:
01
05
16
1-
0,
14
1+
1/
00
1(
0'
1.
1&
b1100 $
1)
b1100 !
b1100 %
0*
1"
#25
0"
#26
0(
1'
0.
0&
b100 $
0)
b1101 !
b1101 %
1*
1"
#27
0"
#28
0-
1,
04
0+
0/
10
1(
0'
1.
1&
b1000 $
1)
b1110 !
b1110 %
0*
1"
#29
0"
#30
0(
1'
0.
0&
b0 $
0)
b1111 !
b1111 %
1*
1"
#31
0"
#32
19
08
17
1;
0<
13
02
1:
11
15
06
1-
0,
14
1+
1/
00
1(
0'
1.
1&
b1111 $
1)
b0 !
b0 %
0*
1"
#33
0"
#34
0(
1'
0.
0&
b111 $
0)
b1 !
b1 %
1*
1"
#35
0"
#36
0-
1,
04
0+
0/
10
1(
0'
1.
1&
b1011 $
1)
b10 !
b10 %
0*
1"
#37
0"
#38
0(
1'
0.
0&
b11 $
0)
b11 !
b11 %
1*
1"
#39
0"
#40
03
12
0:
01
05
16
1-
0,
14
1+
1/
00
1(
0'
1.
1&
b1101 $
1)
b100 !
b100 %
0*
1"
#41
0"
#42
0(
1'
0.
0&
b101 $
0)
b101 !
b101 %
1*
1"
#43
0"
#44
0-
1,
04
0+
0/
10
1(
0'
1.
1&
b1001 $
1)
b110 !
b110 %
0*
1"
#45
0"
#46
0(
1'
0.
0&
b1 $
0)
b111 !
b111 %
1*
1"
#47
0"
#48
09
18
07
0;
1<
13
02
1:
11
15
06
1-
0,
14
1+
1/
00
1(
0'
1.
1&
b1110 $
1)
b1000 !
b1000 %
0*
1"
#49
0"
#50
0(
1'
0.
0&
b110 $
0)
b1001 !
b1001 %
1*
1"
#51
0"
#52
0-
1,
04
0+
0/
10
1(
0'
1.
1&
b1010 $
1)
b1010 !
b1010 %
0*
1"
#53
0"
#54
0(
1'
0.
0&
b10 $
0)
b1011 !
b1011 %
1*
1"
#55
0"
#56
03
12
0:
01
05
16
1-
0,
14
1+
1/
00
1(
0'
1.
1&
b1100 $
1)
b1100 !
b1100 %
0*
1"
#57
0"
#58
0(
1'
0.
0&
b100 $
0)
b1101 !
b1101 %
1*
1"
#59
0"
#60
0-
1,
04
0+
0/
10
1(
0'
1.
1&
b1000 $
1)
b1110 !
b1110 %
0*
1"
#61
0"
#62
0(
1'
0.
0&
b0 $
0)
b1111 !
b1111 %
1*
1"
#63
0"
#64
19
08
17
1;
0<
13
02
1:
11
15
06
1-
0,
14
1+
1/
00
1(
0'
1.
1&
b1111 $
1)
b0 !
b0 %
0*
1"
#65
0"
#66
0(
1'
0.
0&
b111 $
0)
b1 !
b1 %
1*
1"
#67
0"
#68
0-
1,
04
0+
0/
10
1(
0'
1.
1&
b1011 $
1)
b10 !
b10 %
0*
1"
#69
0"
#70
0(
1'
0.
0&
b11 $
0)
b11 !
b11 %
1*
1"
#71
0"
#72
03
12
0:
01
05
16
1-
0,
14
1+
1/
00
1(
0'
1.
1&
b1101 $
1)
b100 !
b100 %
0*
1"
#73
0"
#74
0(
1'
0.
0&
b101 $
0)
b101 !
b101 %
1*
1"
#75
0"
#76
0-
1,
04
0+
0/
10
1(
0'
1.
1&
b1001 $
1)
b110 !
b110 %
0*
1"
#77
0"
#78
0(
1'
0.
0&
b1 $
0)
b111 !
b111 %
1*
1"
#79
0"
#80
09
18
07
0;
1<
13
02
1:
11
15
06
1-
0,
14
1+
1/
00
1(
0'
1.
1&
b1110 $
1)
b1000 !
b1000 %
0*
1"
#81
0"
#82
0(
1'
0.
0&
b110 $
0)
b1001 !
b1001 %
1*
1"
#83
0"
#84
0-
1,
04
0+
0/
10
1(
0'
1.
1&
b1010 $
1)
b1010 !
b1010 %
0*
1"
#85
0"
#86
0(
1'
0.
0&
b10 $
0)
b1011 !
b1011 %
1*
1"
#87
0"
#88
03
12
0:
01
05
16
1-
0,
14
1+
1/
00
1(
0'
1.
1&
b1100 $
1)
b1100 !
b1100 %
0*
1"
#89
0"
#90
0(
1'
0.
0&
b100 $
0)
b1101 !
b1101 %
1*
1"
#91
0"
#92
0-
1,
04
0+
0/
10
1(
0'
1.
1&
b1000 $
1)
b1110 !
b1110 %
0*
1"
#93
0"
#94
0(
1'
0.
0&
b0 $
0)
b1111 !
b1111 %
1*
1"
#95
0"
#96
19
08
17
1;
0<
13
02
1:
11
15
06
1-
0,
14
1+
1/
00
1(
0'
1.
1&
b1111 $
1)
b0 !
b0 %
0*
1"
#97
0"
#98
0(
1'
0.
0&
b111 $
0)
b1 !
b1 %
1*
1"
#99
0"
#100
0-
1,
04
0+
0/
10
1(
0'
1.
1&
b1011 $
1)
b10 !
b10 %
0*
1"
